281621 818389 509
493023 169920 449
742650 95824 509
960739 147815 525
560820 759436 509
95710 698168 509
328680 124473 443
129625 298121 443
940032 803644 525
613638 89727 470
542876 39602 470
606526 965117 525
159683 370577 443
407271 232891 441
218552 479589 449
224177 852604 525
302192 580630 470
693965 234041 509
50191 149006 375
552026 329832 470
718213 757480 424
647801 375523 509
62868 124166 354
522664 868318 525
457577 85539 449
426224 358545 449
540968 713881 509
863500 28006 525
575914 580897 390
985293 303739 525
790173 34184 509
909316 211247 525
717531 823728 468
631405 105069 509
778740 120702 509
681076 673042 385
102954 873990 525
511469 720182 509
45763 20863 324
274384 668034 509
38829 350247 443
90925 209028 383
137408 14485 354
27806 870988 525
650796 971827 525
800925 37739 509
637677 750289 504
523609 813468 509
252291 941836 525
375867 457110 449
610562 946118 525
352771 958712 525
757240 49803 509
438541 563521 470
490904 610100 470
966963 9888 525
881422 859192 432
299007 855414 525
357986 946597 525
663260 361825 509
782947 313538 509
132567 813910 509
611882 722829 509
981301 668762 525
22813 794422 509
217847 580378 470
401375 136313 443
964592 259740 525
12054 317114 443
490034 346903 449
381561 406463 436
81503 716886 509
662098 922698 525
370052 407901 436
667834 179054 509
860808 992776 507
211890 976864 525
493768 365919 449
884874 566702 525
246653 780181 509
180200 351614 443
230884 902022 525
782372 389147 509
569399 409629 470
171669 443936 449
642746 847832 525
874345 267934 525
883657 759629 525
238354 641091 509
687006 946867 525
495139 475452 426
620012 121676 470
660147 460153 509
762167 710090 424
205330 978894 525
924575 397857 525
184361 602688 470
26022 725531 509
87699 568659 470
452232 137493 449
925959 590843 525
452423 499491 444
151612 793643 509
333418 942279 525
77213 685598 509
760748 839730 525
841007 339536 525
195660 636003 509
607973 472258 470
594855 34668 470
578835 21651 470
401004 264604 441
75329 144036 375
956557 935210 507
103815 561928 470
432730 702905 509
391054 353622 436
838074 564613 525
401618 515398 470
263262 60570 443
276268 485840 449
462736 366818 449
483753 924269 525
279755 248758 407
337084 434713 449
582528 955831 525
912873 282928 525
541185 304467 470
165152 514236 470
123918 812413 509
899806 918739 476
85440 209226 383
906921 839683 445
905511 696636 525
835887 163227 509
900156 946127 507
210287 720652 509
229752 939491 525
545006 342657 470
581688 586313 434
726020 934664 525
317803 718301 509
469751 688416 509
644267 247221 509
586714 270502 470
384554 114605 443
819077 725641 468
995913 690759 525
862883 792651 525
797282 447243 509
682285 544040 509
777492 625769 509
483138 386387 449
774132 77342 509
898722 623331 525
378389 42364 443
87376 464836 449
949784 810520 525
701648 816266 504
471393 372018 449
858197 142095 525
858379 704623 525
144403 856888 525
429047 40946 449
653071 807069 504
757550 233197 509
598143 629724 509
635788 736801 504
97573 660671 509
908330 363054 525
97707 872984 525
130713 116973 344
848678 932594 476
126156 141160 344
817454 439179 509
745842 298505 509
119036 588190 470
865152 125037 525
970064 333534 525
939574 273556 525
900674 978040 507
729249 177266 509
197379 705789 509
71053 128982 354
166017 783144 509
920818 102534 525
741741 713780 424
312110 832386 509
141759 359396 443
288090 5369 443
7846 447448 449
275512 906117 525
624637 438733 470
574977 395860 470
858779 887919 445
599063 701182 509
14337 288397 443
185037 853249 525
121710 462160 449
76327 6831 340
662591 942436 525
163913 26692 383
321241 542986 470
532132 740272 509
58438 944637 525
464184 950259 525
116878 344138 443
385777 330303 441
557132 714739 509
489484 363747 449
306640 462156 449
432063 906819 525
